{
    "count": 200,
    "next": "https://cryptopanic.com/api/posts/?auth_token=7ad13cff4a303a55ce9c791aa0143a669c6ee1ce&metadata=true&filter=important&page=2",
    "previous": null,
    "results": [
        {
            "created_at": "2018-06-06T20:25:08Z",
            "currencies": [
                {
                    "code": "XRP",
                    "slug": "ripple",
                    "title": "Ripple",
                    "url": "https://cryptopanic.com/news/ripple/"
                }
            ],
            "domain": "@Ripple",
            "id": 2154417,
            "published_at": "2018-06-06T20:25:08Z",
            "slug": "Were-pleased-to-have-a-second-Kuwaiti-bank-join-RippleNet-Welcome-KFHGroup",
            "source": {
                "domain": "twitter.com",
                "path": "@ripple",
                "title": "Ripple Twitter"
            },
            "title": "We’re pleased to have a second Kuwaiti bank join RippleNet! Welcome @KFHGroup!",
            "url": "https://cryptopanic.com/news/2154417/Were-pleased-to-have-a-second-Kuwaiti-bank-join-RippleNet-Welcome-KFHGroup",
            "votes": {
                "disliked": 3,
                "important": 9,
                "liked": 13,
                "lol": 4,
                "negative": 3,
                "positive": 13,
                "saved": 0,
                "toxic": 0
            }
        },
        {
            "created_at": "2018-06-06T19:20:24.250212Z",
            "currencies": [
                {
                    "code": "EOS",
                    "slug": "eos",
                    "title": "EOS",
                    "url": "https://cryptopanic.com/news/eos/"
                }
            ],
            "domain": "r/eos",
            "id": 2153138,
            "published_at": "2018-06-06T19:20:24.250212Z",
            "slug": "Heres-why-the-mainnet-did-not-launch-today-And-thats-fine",
            "source": {
                "domain": "reddit.com",
                "path": "r/eos",
                "title": "EOS Reddit"
            },
            "title": "Here’s why the mainnet did not launch today. And that’s fine.",
            "url": "https://cryptopanic.com/news/2153138/Heres-why-the-mainnet-did-not-launch-today-And-thats-fine",
            "votes": {
                "disliked": 15,
                "important": 15,
                "liked": 16,
                "lol": 12,
                "negative": 22,
                "positive": 20,
                "saved": 1,
                "toxic": 0
            }
        },
        {
            "created_at": "2018-06-06T18:58:41Z",
            "currencies": [
                {
                    "code": "BTC",
                    "slug": "bitcoin",
                    "title": "Bitcoin",
                    "url": "https://cryptopanic.com/news/bitcoin/"
                },
                {
                    "code": "ETH",
                    "slug": "ethereum",
                    "title": "Ethereum",
                    "url": "https://cryptopanic.com/news/ethereum/"
                },
                {
                    "code": "XRP",
                    "slug": "ripple",
                    "title": "Ripple",
                    "url": "https://cryptopanic.com/news/ripple/"
                },
                {
                    "code": "EOS",
                    "slug": "eos",
                    "title": "EOS",
                    "url": "https://cryptopanic.com/news/eos/"
                },
                {
                    "code": "XLM",
                    "slug": "stellar",
                    "title": "Stellar",
                    "url": "https://cryptopanic.com/news/stellar/"
                },
                {
                    "code": "TRX",
                    "slug": "tron",
                    "title": "TRON",
                    "url": "https://cryptopanic.com/news/tron/"
                },
                {
                    "code": "VEN",
                    "slug": "vechain",
                    "title": "VeChain",
                    "url": "https://cryptopanic.com/news/vechain/"
                }
            ],
            "domain": "ethereumworldnews.com",
            "id": 2152894,
            "metadata": {
                "description": "<p>Back in late April, Ethereum World News had highlighted that the crypto-verse was in need of the then discontinued Codius Smart Contract platform by Ripple. The platform had been discontinued in 2015 due to the presence of a small market for the product back then and the lack of a standard for payments on the [&#8230;]</p>\n",
                "image": "https://ethereumworldnews.com/wp-content/uploads/2018/04/ripple104__pd-1514880072148_v-z-a-par-a-l.jpg"
            },
            "published_at": "2018-06-06T18:58:41Z",
            "slug": "Smart-Contracts-Will-Never-Be-The-Same-As-Ripple-XRP-Revives-CODIUS",
            "source": {
                "domain": "ethereumworldnews.com",
                "path": null,
                "title": "Ethereum World News"
            },
            "title": "Smart Contracts Will Never Be The Same As Ripple (XRP) Revives CODIUS",
            "url": "https://cryptopanic.com/news/2152894/Smart-Contracts-Will-Never-Be-The-Same-As-Ripple-XRP-Revives-CODIUS",
            "votes": {
                "disliked": 2,
                "important": 14,
                "liked": 14,
                "lol": 2,
                "negative": 0,
                "positive": 18,
                "saved": 4,
                "toxic": 0
            }
        },
        {
            "created_at": "2018-06-06T18:50:21.509503Z",
            "currencies": [
                {
                    "code": "EOS",
                    "slug": "eos",
                    "title": "EOS",
                    "url": "https://cryptopanic.com/news/eos/"
                }
            ],
            "domain": "r/eos",
            "id": 2152600,
            "published_at": "2018-06-06T18:50:21.509503Z",
            "slug": "EOS-We-are-almost-there-be-patient-we-will-reap-the-rewards",
            "source": {
                "domain": "reddit.com",
                "path": "r/eos",
                "title": "EOS Reddit"
            },
            "title": "EOS - We are almost there! be patient we will reap the rewards.",
            "url": "https://cryptopanic.com/news/2152600/EOS-We-are-almost-there-be-patient-we-will-reap-the-rewards",
            "votes": {
                "disliked": 7,
                "important": 3,
                "liked": 9,
                "lol": 6,
                "negative": 10,
                "positive": 11,
                "saved": 0,
                "toxic": 0
            }
        },
        {
            "created_at": "2018-06-06T18:40:26.130676Z",
            "currencies": [
                {
                    "code": "MIOTA",
                    "slug": "iota",
                    "title": "IOTA",
                    "url": "https://cryptopanic.com/news/iota/"
                }
            ],
            "domain": "r/Iota",
            "id": 2152415,
            "published_at": "2018-06-06T18:40:26.130676Z",
            "slug": "Dominik-Schiener-will-be-speaking-at-the-EY-World-Entrepreneur-Of-The-Year-Conference-in-Monaco",
            "source": {
                "domain": "reddit.com",
                "path": "r/iota",
                "title": "IOTA Reddit"
            },
            "title": "Dominik Schiener will be speaking at the EY World Entrepreneur Of The Year Conference in Monaco",
            "url": "https://cryptopanic.com/news/2152415/Dominik-Schiener-will-be-speaking-at-the-EY-World-Entrepreneur-Of-The-Year-Conference-in-Monaco",
            "votes": {
                "disliked": 0,
                "important": 2,
                "liked": 3,
                "lol": 0,
                "negative": 0,
                "positive": 3,
                "saved": 0,
                "toxic": 0
            }
        },
        {
            "created_at": "2018-06-06T18:31:15.159205Z",
            "currencies": [
                {
                    "code": "EOS",
                    "slug": "eos",
                    "title": "EOS",
                    "url": "https://cryptopanic.com/news/eos/"
                }
            ],
            "domain": "r/eos",
            "id": 2152253,
            "published_at": "2018-06-06T18:31:15.159205Z",
            "slug": "John-McAfee-predicts-EOS-to-be-33-by-July",
            "source": {
                "domain": "reddit.com",
                "path": "r/eos",
                "title": "EOS Reddit"
            },
            "title": "John McAfee predicts EOS to be $33 by July.",
            "url": "https://cryptopanic.com/news/2152253/John-McAfee-predicts-EOS-to-be-33-by-July",
            "votes": {
                "disliked": 11,
                "important": 2,
                "liked": 11,
                "lol": 12,
                "negative": 15,
                "positive": 15,
                "saved": 0,
                "toxic": 1
            }
        },
        {
            "created_at": "2018-06-06T17:23:37Z",
            "domain": "zycrypto.com",
            "id": 2150902,
            "metadata": {
                "description": "<p>The US Securities Exchange Commission is currently sourcing for innovative ways to manage the emerging multi-billion cryptocurrency industry. That, however, does not include any plans to redefine the meaning of a security according to Jay Clayton, who heads the agency. Speaking to CNBC on Wednesday, &#8220;We are not going to do any violence to the [&#8230;]</p>\n",
                "image": "https://zycrypto.com/wp-content/uploads/2018/06/U.S.-SEC-says-it-won’t-Change-the-Definition-of-a-Security_-Crypto-Not-A-Security.png"
            },
            "published_at": "2018-06-06T17:23:37Z",
            "slug": "US-SEC-says-it-wont-Change-the-Definition-of-a-Security-Crypto-Not-A-Security",
            "source": {
                "domain": "zycrypto.com",
                "path": null,
                "title": "ZyCrypto"
            },
            "title": "U.S. SEC says it won’t Change the Definition of a Security: Crypto Not A Security",
            "url": "https://cryptopanic.com/news/2150902/US-SEC-says-it-wont-Change-the-Definition-of-a-Security-Crypto-Not-A-Security",
            "votes": {
                "disliked": 0,
                "important": 21,
                "liked": 24,
                "lol": 0,
                "negative": 0,
                "positive": 37,
                "saved": 5,
                "toxic": 0
            }
        },
        {
            "created_at": "2018-06-06T17:20:09.829352Z",
            "domain": "r/CryptoCurrency",
            "id": 2150804,
            "published_at": "2018-06-06T17:20:09.829352Z",
            "slug": "Binance-CEO-reveals-the-company-is-one-step-closer-to-offering-fiat-crypto-trading-has-already-set-up-a-bank-account-in-Malta",
            "source": {
                "domain": "reddit.com",
                "path": "r/cryptocurrency",
                "title": "Reddit - cryptocurrency"
            },
            "title": "Binance CEO reveals the company is one step closer to offering fiat-crypto trading, has already set up a bank account in Malta",
            "url": "https://cryptopanic.com/news/2150804/Binance-CEO-reveals-the-company-is-one-step-closer-to-offering-fiat-crypto-trading-has-already-set-up-a-bank-account-in-Malta",
            "votes": {
                "disliked": 0,
                "important": 20,
                "liked": 24,
                "lol": 0,
                "negative": 0,
                "positive": 34,
                "saved": 3,
                "toxic": 0
            }
        },
        {
            "created_at": "2018-06-06T17:20:07Z",
            "currencies": [
                {
                    "code": "EOS",
                    "slug": "eos",
                    "title": "EOS",
                    "url": "https://cryptopanic.com/news/eos/"
                }
            ],
            "domain": "trustnodes.com",
            "id": 2150901,
            "metadata": {
                "description": "<p>A closed door online meeting of block producers has delayed the launch of EOS following the recent disclosure of a number of protocol bugs. After 48 hours of testing, the...</p>\n",
                "image": "https://www.trustnodes.com/wp-content/uploads/2018/06/eos.png"
            },
            "published_at": "2018-06-06T17:20:07Z",
            "slug": "EOS-Launch-Delayed-Pending-Audit-Results",
            "source": {
                "domain": "trustnodes.com",
                "path": null,
                "title": "Trustnodes"
            },
            "title": "EOS Launch Delayed Pending Audit Results",
            "url": "https://cryptopanic.com/news/2150901/EOS-Launch-Delayed-Pending-Audit-Results",
            "votes": {
                "disliked": 2,
                "important": 3,
                "liked": 4,
                "lol": 3,
                "negative": 3,
                "positive": 4,
                "saved": 0,
                "toxic": 0
            }
        },
        {
            "created_at": "2018-06-06T17:10:25.850054Z",
            "currencies": [
                {
                    "code": "BTC",
                    "slug": "bitcoin",
                    "title": "Bitcoin",
                    "url": "https://cryptopanic.com/news/bitcoin/"
                }
            ],
            "domain": "r/Bitcoin",
            "id": 2150611,
            "published_at": "2018-06-06T17:10:25.850054Z",
            "slug": "980BTC-75MILLION-Dollar-Buy-Order-on-Bitstamp",
            "source": {
                "domain": "reddit.com",
                "path": "r/bitcoin",
                "title": "r/Bitcoin Reddit"
            },
            "title": "980BTC - 7.5MILLION Dollar Buy Order on Bitstamp !",
            "url": "https://cryptopanic.com/news/2150611/980BTC-75MILLION-Dollar-Buy-Order-on-Bitstamp",
            "votes": {
                "disliked": 1,
                "important": 14,
                "liked": 18,
                "lol": 1,
                "negative": 1,
                "positive": 28,
                "saved": 1,
                "toxic": 0
            }
        },
        {
            "created_at": "2018-06-06T17:10:25.686303Z",
            "currencies": [
                {
                    "code": "BTC",
                    "slug": "bitcoin",
                    "title": "Bitcoin",
                    "url": "https://cryptopanic.com/news/bitcoin/"
                }
            ],
            "domain": "r/Bitcoin",
            "id": 2150610,
            "published_at": "2018-06-06T17:10:25.686303Z",
            "slug": "BTC-ETFs-have-just-been-registered-by-the-SEC-Very-Bullish-news",
            "source": {
                "domain": "reddit.com",
                "path": "r/bitcoin",
                "title": "r/Bitcoin Reddit"
            },
            "title": "BTC ETFs have just been registered by the SEC! Very Bullish news!",
            "url": "https://cryptopanic.com/news/2150610/BTC-ETFs-have-just-been-registered-by-the-SEC-Very-Bullish-news",
            "votes": {
                "disliked": 0,
                "important": 9,
                "liked": 12,
                "lol": 0,
                "negative": 0,
                "positive": 20,
                "saved": 1,
                "toxic": 0
            }
        },
        {
            "created_at": "2018-06-06T16:55:10.562653Z",
            "domain": "r/CryptoCurrency",
            "id": 2150217,
            "published_at": "2018-06-06T16:55:10.562653Z",
            "slug": "OriginTrail-Protocol-Will-Become-the-Foundational-Blockchain-Layer-for-the-New-Food-Integrity-Center-FIC-in-Vietnam",
            "source": {
                "domain": "reddit.com",
                "path": "r/cryptocurrency",
                "title": "Reddit - cryptocurrency"
            },
            "title": "OriginTrail Protocol Will Become the Foundational Blockchain Layer for the New Food Integrity Center (FIC) in Vietnam",
            "url": "https://cryptopanic.com/news/2150217/OriginTrail-Protocol-Will-Become-the-Foundational-Blockchain-Layer-for-the-New-Food-Integrity-Center-FIC-in-Vietnam",
            "votes": {
                "disliked": 0,
                "important": 2,
                "liked": 2,
                "lol": 0,
                "negative": 0,
                "positive": 2,
                "saved": 1,
                "toxic": 0
            }
        },
        {
            "created_at": "2018-06-06T16:45:04Z",
            "currencies": [
                {
                    "code": "TRX",
                    "slug": "tron",
                    "title": "TRON",
                    "url": "https://cryptopanic.com/news/tron/"
                }
            ],
            "domain": "ambcrypto.com",
            "id": 2150218,
            "metadata": {
                "description": "<p>After the BitForex listing update was made, Justin Sun, the founder at TRON posted another update on Twitter about, the 100 trading pairs done so far for TRX. These trading pairs are a part of various trading platforms like Gatecoin, CoinExchnage, Stocks.Exchange, CoinExchange, Gatecoin, BitFlip, Koinex, Braziliex, Livecoin, Cryptomate, CoinBene, Neraex, and Cobinhood. Justin Sun [&#8230;]</p>\n",
                "image": "https://ambcrypto.com/wp-content/uploads/2018/06/breakfast-3397655_960_720-e1528293590818.jpg"
            },
            "published_at": "2018-06-06T16:45:04Z",
            "slug": "Over-100-trading-pairs-for-TRX-TRON-never-sleeps-Justin-Sun",
            "source": {
                "domain": "ambcrypto.com",
                "path": null,
                "title": "AMBCrypto"
            },
            "title": "“Over 100 trading pairs for $TRX! TRON never sleeps”- Justin Sun",
            "url": "https://cryptopanic.com/news/2150218/Over-100-trading-pairs-for-TRX-TRON-never-sleeps-Justin-Sun",
            "votes": {
                "disliked": 0,
                "important": 9,
                "liked": 10,
                "lol": 1,
                "negative": 0,
                "positive": 15,
                "saved": 2,
                "toxic": 0
            }
        },
        {
            "created_at": "2018-06-06T16:01:18.119852Z",
            "currencies": [
                {
                    "code": "TRX",
                    "slug": "tron",
                    "title": "TRON",
                    "url": "https://cryptopanic.com/news/tron/"
                }
            ],
            "domain": "r/Tronix",
            "id": 2149101,
            "published_at": "2018-06-06T16:01:18.119852Z",
            "slug": "TRX-will-be-listed-on-BitForex",
            "source": {
                "domain": "reddit.com",
                "path": "r/tronix",
                "title": "TRON Reddit"
            },
            "title": "TRX will be listed on BitForex",
            "url": "https://cryptopanic.com/news/2149101/TRX-will-be-listed-on-BitForex",
            "votes": {
                "disliked": 0,
                "important": 2,
                "liked": 3,
                "lol": 0,
                "negative": 0,
                "positive": 3,
                "saved": 0,
                "toxic": 0
            }
        },
        {
            "created_at": "2018-06-06T15:50:12.286262Z",
            "domain": "r/CryptoCurrency",
            "id": 2148845,
            "published_at": "2018-06-06T15:50:12.286262Z",
            "slug": "Twitch-added-Crypto-Category",
            "source": {
                "domain": "reddit.com",
                "path": "r/cryptocurrency",
                "title": "Reddit - cryptocurrency"
            },
            "title": "Twitch added Crypto Category",
            "url": "https://cryptopanic.com/news/2148845/Twitch-added-Crypto-Category",
            "votes": {
                "disliked": 0,
                "important": 3,
                "liked": 12,
                "lol": 0,
                "negative": 1,
                "positive": 15,
                "saved": 1,
                "toxic": 0
            }
        },
        {
            "created_at": "2018-06-06T15:30:27Z",
            "currencies": [
                {
                    "code": "EOS",
                    "slug": "eos",
                    "title": "EOS",
                    "url": "https://cryptopanic.com/news/eos/"
                }
            ],
            "domain": "cryptodaily.co.uk",
            "id": 2148573,
            "metadata": {
                "description": "<p>If you&#8217;ve not already heard of it, I&#8217;m pretty sure you&#8217;re going to over the next few days. Someone has created a &#8216;classic&#8217; version of EOS. Whilst it seems to be quite a complex idea, the premise of EOS Classic is that it is a mineable version of EOS. As we know, EOS was technically a super-long running coin offering until very recently, now, as EOS enters its...",
                "image": "https://cryptodaily.co.uk/wp-content/uploads/2018/06/question-cards-eos.jpg"
            },
            "published_at": "2018-06-06T15:30:27Z",
            "slug": "What-On-Earth-Is-EOS-Classic",
            "source": {
                "domain": "cryptodaily.co.uk",
                "path": null,
                "title": "CryptoDaily"
            },
            "title": "What On Earth Is EOS Classic?",
            "url": "https://cryptopanic.com/news/2148573/What-On-Earth-Is-EOS-Classic",
            "votes": {
                "disliked": 3,
                "important": 3,
                "liked": 2,
                "lol": 4,
                "negative": 7,
                "positive": 3,
                "saved": 1,
                "toxic": 0
            }
        },
        {
            "created_at": "2018-06-06T15:14:03Z",
            "domain": "trustnodes.com",
            "id": 2148183,
            "metadata": {
                "description": "<p>One of the worlds biggest crypto mining data centre has begun operations in&#160;Massena, New York, with a capacity of&#160;435-megawatt on a&#160;1300-acre site. Coinmint, a wholly owned subsidiary of&#160;North Country Data...</p>\n",
                "image": "https://www.trustnodes.com/wp-content/uploads/2018/06/coinmint-crypto-mining-datacentre.png"
            },
            "published_at": "2018-06-06T15:14:03Z",
            "slug": "700-Million-Crypto-Mining-Data-Center-Starts-Operations-in-New-York",
            "source": {
                "domain": "trustnodes.com",
                "path": null,
                "title": "Trustnodes"
            },
            "title": "$700 Million Crypto Mining Data Center Starts Operations in New York",
            "url": "https://cryptopanic.com/news/2148183/700-Million-Crypto-Mining-Data-Center-Starts-Operations-in-New-York",
            "votes": {
                "disliked": 0,
                "important": 8,
                "liked": 5,
                "lol": 0,
                "negative": 0,
                "positive": 5,
                "saved": 2,
                "toxic": 0
            }
        },
        {
            "created_at": "2018-06-06T15:00:33Z",
            "currencies": [
                {
                    "code": "XRP",
                    "slug": "ripple",
                    "title": "Ripple",
                    "url": "https://cryptopanic.com/news/ripple/"
                }
            ],
            "domain": "coininsider.com",
            "id": 2148146,
            "metadata": {
                "description": "<p>Ripple has teamed up with seventeen universities across the globe in the University Blockchain Research Initiative which will see the donation of millions in funds, as well as additional research, expertise, and knowledge.</p>\n",
                "image": "https://www.coininsider.com/wp-content/uploads/2018/02/Coin-Insider-Facebook.png"
            },
            "published_at": "2018-06-06T15:00:33Z",
            "slug": "Ripples-waves-flow-into-academia-with-new-50-Million-USD-initiative",
            "source": {
                "domain": "coininsider.com",
                "path": null,
                "title": "Coin Insider"
            },
            "title": "Ripple’s waves flow into academia with new $50 Million USD initiative",
            "url": "https://cryptopanic.com/news/2148146/Ripples-waves-flow-into-academia-with-new-50-Million-USD-initiative",
            "votes": {
                "disliked": 1,
                "important": 2,
                "liked": 5,
                "lol": 1,
                "negative": 1,
                "positive": 5,
                "saved": 1,
                "toxic": 0
            }
        },
        {
            "created_at": "2018-06-06T14:45:15.057003Z",
            "currencies": [
                {
                    "code": "ETH",
                    "slug": "ethereum",
                    "title": "Ethereum",
                    "url": "https://cryptopanic.com/news/ethereum/"
                }
            ],
            "domain": "r/CryptoCurrency",
            "id": 2147502,
            "published_at": "2018-06-06T14:45:15.057003Z",
            "slug": "The-top-003-addresses-own-833-of-total-Ether-ETH-Ecosystem-analysis",
            "source": {
                "domain": "reddit.com",
                "path": "r/cryptocurrency",
                "title": "Reddit - cryptocurrency"
            },
            "title": "\"The top 0.03% addresses own 83.3% of total Ether\" - ETH Ecosystem analysis",
            "url": "https://cryptopanic.com/news/2147502/The-top-003-addresses-own-833-of-total-Ether-ETH-Ecosystem-analysis",
            "votes": {
                "disliked": 9,
                "important": 8,
                "liked": 1,
                "lol": 7,
                "negative": 10,
                "positive": 2,
                "saved": 1,
                "toxic": 0
            }
        },
        {
            "created_at": "2018-06-06T14:45:07Z",
            "currencies": [
                {
                    "code": "LTC",
                    "slug": "litecoin",
                    "title": "Litecoin",
                    "url": "https://cryptopanic.com/news/litecoin/"
                }
            ],
            "domain": "ambcrypto.com",
            "id": 2147501,
            "metadata": {
                "description": "<p>Charlie Lee, Creator of Litecoin [LTC], has announced earlier today the team at LTC Foundation has pulled together all the resources in one place to help out the businesses to accept Litecoin. The announcement was made by the Litecoin Foundation on Twitter. Along with the announcement, the team has also attached a video which displays [&#8230;]</p>\n",
                "image": "https://ambcrypto.com/wp-content/uploads/2018/06/Litecoin-LTC-Foundation-brings-PayWithLitecoin-to-your-door-step-e1528279444869.jpg"
            },
            "published_at": "2018-06-06T14:45:07Z",
            "slug": "Litecoin-LTC-Foundation-brings-PayWithLitecoin-to-your-door-step",
            "source": {
                "domain": "ambcrypto.com",
                "path": null,
                "title": "AMBCrypto"
            },
            "title": "Litecoin [LTC] Foundation brings #PayWithLitecoin to your door step",
            "url": "https://cryptopanic.com/news/2147501/Litecoin-LTC-Foundation-brings-PayWithLitecoin-to-your-door-step",
            "votes": {
                "disliked": 0,
                "important": 10,
                "liked": 8,
                "lol": 0,
                "negative": 0,
                "positive": 12,
                "saved": 1,
                "toxic": 0
            }
        }
    ]
}